lab5/test_run_dir/SevenSegTest_should_pass/CountSevenSeg.vcd
$date
2023-03-09T14:29+0000
$end
$version
0.2
$end
$comment

$end
$timescale 1ns  $end
$scope module CountSevenSeg $end
 $var wire 7 ! io_seg $end
 $var wire 7 " sevSeg $end
 $var wire 4 # cntReg $end
 $var wire 4 $ io_an $end
 $var wire 1 % clock $end
 $var wire 1 & reset $end
$upscope $end
$enddefinitions $end
$dumpvars
b0000 $
b0000 #
0%
0&
b0000000 !
b0000000 "
$end
#0
b1000000 !
b0111111 "
b1110 $
1&
#1
1%
#6
0%
0&
#11
b1111001 !
b0000110 "
b0001 #
1%
#16
0%
#21
b0100100 !
b1011011 "
b0010 #
1%
#26
0%
#31
b0110000 !
b1001111 "
b0011 #
1%
#36
0%
#41
b0011001 !
b1100110 "
b0100 #
1%
#46
0%
#51
b0010010 !
b1101101 "
b0101 #
1%
#56
0%
#61
b0000010 !
b1111101 "
b0110 #
1%
#66
0%
#71
b1111000 !
b0000111 "
b0111 #
1%
#76
0%
#81
b0000000 !
b1111111 "
b1000 #
1%
#86
0%
#91
b0010000 !
b1101111 "
b1001 #
1%
#96
0%
#101
b0001000 !
b1110111 "
b1010 #
1%
#106
0%
#111
b0000011 !
b1111100 "
b1011 #
1%
#116
0%
#121
b1000110 !
b0111001 "
b1100 #
1%
#126
0%
#131
b0100001 !
b1011110 "
b1101 #
1%
#136
0%
#141
b0000110 !
b1111001 "
b1110 #
1%
#146
0%
#151
b0001110 !
b1110001 "
b1111 #
1%
#156
0%
#161
b1000000 !
b0111111 "
b0000 #
1%
#166
0%
#171
b1111001 !
b0000110 "
b0001 #
1%
#176
0%
#181
b0100100 !
b1011011 "
b0010 #
1%
#186
0%
#191
b0110000 !
b1001111 "
b0011 #
1%
#196
0%
#201
b0011001 !
b1100110 "
b0100 #
1%
#206
0%
#211
b0010010 !
b1101101 "
b0101 #
1%
#216
0%
#221
b0000010 !
b1111101 "
b0110 #
1%
#226
0%
#231
b1111000 !
b0000111 "
b0111 #
1%
#236
0%
#241
b0000000 !
b1111111 "
b1000 #
1%
#246
0%
#251
b0010000 !
b1101111 "
b1001 #
1%
#256
0%
#261
b0001000 !
b1110111 "
b1010 #
1%
#266
0%
#271
b0000011 !
b1111100 "
b1011 #
1%
#276
0%
#281
b1000110 !
b0111001 "
b1100 #
1%
#286
0%
#291
b0100001 !
b1011110 "
b1101 #
1%
#296
0%
#301
b0000110 !
b1111001 "
b1110 #
1%
#306
0%
#311
b0001110 !
b1110001 "
b1111 #
1%
#316
0%
#321
b1000000 !
b0111111 "
b0000 #
1%
#326
0%
#331
b1111001 !
b0000110 "
b0001 #
1%
#336
0%
#341
b0100100 !
b1011011 "
b0010 #
1%
#346
0%
#351
b0110000 !
b1001111 "
b0011 #
1%
#356
0%
#361
b0011001 !
b1100110 "
b0100 #
1%
#366
0%
#371
b0010010 !
b1101101 "
b0101 #
1%
#376
0%
#381
b0000010 !
b1111101 "
b0110 #
1%
#386
0%
#391
b1111000 !
b0000111 "
b0111 #
1%
#396
0%
#401
b0000000 !
b1111111 "
b1000 #
1%
#406
0%
#411
b0010000 !
b1101111 "
b1001 #
1%
#416
0%
#421
b0001000 !
b1110111 "
b1010 #
1%
#426
0%
#431
b0000011 !
b1111100 "
b1011 #
1%
#436
0%
#441
b1000110 !
b0111001 "
b1100 #
1%
#446
0%
#451
b0100001 !
b1011110 "
b1101 #
1%
#456
0%
#461
b0000110 !
b1111001 "
b1110 #
1%
#466
0%
#471
b0001110 !
b1110001 "
b1111 #
1%
#476
0%
#481
b1000000 !
b0111111 "
b0000 #
1%
#486
0%
#491
b1111001 !
b0000110 "
b0001 #
1%
#496
0%
#501
b0100100 !
b1011011 "
b0010 #
1%
#506
0%
#511
b0110000 !
b1001111 "
b0011 #
1%
#516
0%
#521
b0011001 !
b1100110 "
b0100 #
1%
#526
0%
#531
b0010010 !
b1101101 "
b0101 #
1%
#536
0%
#541
b0000010 !
b1111101 "
b0110 #
1%
#546
0%
#551
b1111000 !
b0000111 "
b0111 #
1%
#556
0%
#561
b0000000 !
b1111111 "
b1000 #
1%
#566
0%
#571
b0010000 !
b1101111 "
b1001 #
1%
#576
0%
#581
b0001000 !
b1110111 "
b1010 #
1%
#586
0%
#591
b0000011 !
b1111100 "
b1011 #
1%
#596
0%
#601
b1000110 !
b0111001 "
b1100 #
1%
#606
0%
#611
b0100001 !
b1011110 "
b1101 #
1%
#616
0%
#621
b0000110 !
b1111001 "
b1110 #
1%
#626
0%
#631
b0001110 !
b1110001 "
b1111 #
1%
#636
0%
#641
b1000000 !
b0111111 "
b0000 #
1%
#646
0%
#651
b1111001 !
b0000110 "
b0001 #
1%
#656
0%
#661
b0100100 !
b1011011 "
b0010 #
1%
#666
0%
#671
b0110000 !
b1001111 "
b0011 #
1%
#676
0%
#681
b0011001 !
b1100110 "
b0100 #
1%
#686
0%
#691
b0010010 !
b1101101 "
b0101 #
1%
#696
0%
#701
b0000010 !
b1111101 "
b0110 #
1%
#706
0%
#711
b1111000 !
b0000111 "
b0111 #
1%
#716
0%
#721
b0000000 !
b1111111 "
b1000 #
1%
#726
0%
#731
b0010000 !
b1101111 "
b1001 #
1%
#736
0%
#741
b0001000 !
b1110111 "
b1010 #
1%
#746
0%
#751
b0000011 !
b1111100 "
b1011 #
1%
#756
0%
#761
b1000110 !
b0111001 "
b1100 #
1%
#766
0%
#771
b0100001 !
b1011110 "
b1101 #
1%
#776
0%
#781
b0000110 !
b1111001 "
b1110 #
1%
#786
0%
#791
b0001110 !
b1110001 "
b1111 #
1%
#796
0%
#801
b1000000 !
b0111111 "
b0000 #
1%
#806
0%
#811
b1111001 !
b0000110 "
b0001 #
1%
#816
0%
#821
b0100100 !
b1011011 "
b0010 #
1%
#826
0%
#831
b0110000 !
b1001111 "
b0011 #
1%
#836
0%
#841
b0011001 !
b1100110 "
b0100 #
1%
#846
0%
#851
b0010010 !
b1101101 "
b0101 #
1%
#856
0%
#861
b0000010 !
b1111101 "
b0110 #
1%
#866
0%
#871
b1111000 !
b0000111 "
b0111 #
1%
#876
0%
#881
b0000000 !
b1111111 "
b1000 #
1%
#886
0%
#891
b0010000 !
b1101111 "
b1001 #
1%
#896
0%
#901
b0001000 !
b1110111 "
b1010 #
1%
#906
0%
#911
b0000011 !
b1111100 "
b1011 #
1%
#916
0%
#921
b1000110 !
b0111001 "
b1100 #
1%
#926
0%
#931
b0100001 !
b1011110 "
b1101 #
1%
#936
0%
#941
b0000110 !
b1111001 "
b1110 #
1%
#946
0%
#951
b0001110 !
b1110001 "
b1111 #
1%
#956
0%
#961
b1000000 !
b0111111 "
b0000 #
1%
#966
0%
#971
b1111001 !
b0000110 "
b0001 #
1%
#976
0%
#981
b0100100 !
b1011011 "
b0010 #
1%
#986
0%
#991
b0110000 !
b1001111 "
b0011 #
1%
#996
0%
#1001
b0011001 !
b1100110 "
b0100 #
1%
